<?xml version="1.0" encoding="utf-8"?>
<!-- Generator: Adobe Illustrator 19.0.0, SVG Export Plug-In . SVG Version: 6.00 Build 0)  -->
<svg version="1.1" id="Layer_1" xmlns="http://www.w3.org/2000/svg" xmlns:xlink="http://www.w3.org/1999/xlink" x="0px" y="0px"
	 viewBox="0 0 302 259" style="enable-background:new 0 0 302 259;" xml:space="preserve">
<style type="text/css">
	.st0{opacity:0.4;}
	.st1{opacity:0.4;fill:#FFFFFF;}
</style>
<g class="st0">
	<path class="st1" d="M19,210.4c2.2-4.3,4.5-8.5,6.7-12.8c5.9-11.8,11.8-23.7,17.7-35.5c6.9-13.8,13.7-27.5,20.6-41.3
		c1.8-3.7,3.7-7.3,5.7-11.2c2.3,2.3,4.4,4.3,6.6,6.4c8.5,8.5,17.1,17,25.6,25.7c1.3,1.3,2.1,1.3,3.6,0.3c11.5-7.7,23-15.4,34.6-23.1
		c4.2-2.8,8.5-5.6,12.7-8.5c1.1-0.7,1.8-0.7,2.9,0c7.8,5.3,15.7,10.4,23.5,15.6c8.1,5.4,16.2,10.7,24.2,16.2c1.3,0.9,2.1,0.8,3-0.4
		c0.7-0.9,1.5-1.7,2.6-2.8c1.5,2.8,2.8,5.3,4,7.7c1.1,2.2,2.2,4.5,3.4,6.7c0.6,1.1,0.5,1.9-0.4,2.6c-1.1,0.9-1.2,1.9-0.9,3.2
		c4.2,20.8,8.4,41.6,12.6,62.4c0,0.2,0.1,0.4,0.3,0.9c12.9-6.5,25.8-12.9,38.8-19.4c-3.2-6.4-6.2-12.5-9.3-18.7
		c-1.8-3.7-3.7-7.3-5.5-11c-0.2-0.5-0.4-1.3-0.1-1.8c2.9-5.8,5.9-11.6,9.1-17.8c1.7,3.4,3.3,6.3,4.8,9.3
		c6.9,13.8,13.8,27.6,20.7,41.5c1,1.9,2,3.8,3.1,5.6c0,0.1,0,0.3,0,0.4c-8.7,4.3-17.4,8.6-26,13c-13.4,6.7-26.7,13.4-40.1,20
		c-0.8,0.4-2.2,0.4-3,0c-10-4.9-19.9-9.9-29.9-14.9c-11.6-5.8-23.2-11.7-34.9-17.5c-0.7-0.3-1.9-0.3-2.6,0
		c-8.3,4-16.5,8.2-24.7,12.3c-13.4,6.7-26.7,13.4-40.1,20c-0.8,0.4-2.2,0.4-3,0c-6.9-3.3-13.6-6.8-20.5-10.2
		c-15.2-7.6-30.5-15.2-45.7-22.8C19,210.7,19,210.5,19,210.4z M209.6,219.7c0-0.7,0-0.9,0-1.2c-3.8-19.3-7.7-38.6-11.6-57.9
		c-0.2-1.1-1.2-2.3-2.1-2.9c-7.2-4.9-14.5-9.8-21.8-14.6c-3.7-2.4-7.4-4.9-11.4-7.5c-0.1,1.1-0.2,1.8-0.2,2.5c0,18.8,0,37.5,0,56.3
		c0,1.5,0.5,2.2,1.8,2.8c10.4,5.2,20.8,10.4,31.2,15.6C200,214.9,204.7,217.2,209.6,219.7z M145.7,135.6c-0.5,0.2-0.8,0.3-1,0.5
		c-10.6,7.1-21.3,14.2-31.9,21.2c-1.6,1-2.4,2.3-2.7,4.1c-3.3,16.9-6.7,33.8-10.1,50.8c-0.5,2.4-0.9,4.8-1.3,7.3
		c0.5-0.1,0.7,0,0.8-0.1c15-7.5,29.9-15,44.9-22.4c1.4-0.7,1.5-1.6,1.5-2.9c0-18.6,0-37.3,0-55.9
		C145.9,137.3,145.8,136.6,145.7,135.6z M80.6,222.8c0.2-0.6,0.2-0.9,0.3-1.2c4.2-20.9,8.4-41.9,12.6-62.8c0.2-0.8-0.4-1.9-0.9-2.5
		c-5.5-5.7-11.1-11.2-16.8-16.8c-0.4-0.4-0.9-0.7-1.5-1.2c-10.9,21.8-21.7,43.3-32.5,65.1C54.7,209.8,67.5,216.2,80.6,222.8z"/>
	<path class="st1" d="M238.6,160c-2.2-4.2-4.1-7.9-6-11.6c-6-11.8-12-23.7-18.1-35.6c-4.8-9.4-9.9-18.5-14.2-28.1
		c-6.1-13.5-5.3-26.9,2.4-39.6c6.3-10.4,15.6-16.7,27.4-19.3c18.2-3.9,37.5,5.3,45.9,21.9c6.5,13,6.4,26.1-0.1,39
		c-11.4,22.6-22.9,45.1-34.4,67.6C240.7,156.2,239.8,157.9,238.6,160z M263.9,67.1c-0.1-14-11.4-25.2-25.3-25.2
		c-13.9,0-25.3,11.4-25.3,25.3c0,14,11.6,25.5,25.5,25.3C252.8,92.3,264,81,263.9,67.1z"/>
</g>
</svg>
